{
    "Version": "2012-10-17",
    "Statement": [
        {
            "Sid": "AccessTableAllIndexesSelect",
            "Effect": "Allow",
            "Action": [
                "timestream:Select"
            ],
            "Resource": [
                "arn:aws:timestream:eu-west-1:851725176392:database/iot/*"
            ]
        },
        {
            "Sid": "AccessEndPointReading",
            "Effect": "Allow",
            "Action": [
                "timestream:DescribeEndpoints"
            ],
            "Resource": [
                "*"
            ]
        }
    ]
}